{"count":182120,"next":"https://kudago.com/public-api/v1.4/events/?fields=dates%2Ctitle%2Cdescription%2Csite_url&page=2","previous":null,"results":[{"dates":[{"start":1509811200,"end":1509912000}],"title":"Фестиваль света","description":"<p>Петербург славится своими культурными традициями, и одна из них зарождается прямо на наших глазах — это Фестиваль света. Праздник проходит второй год подряд и привлекает тысячи зрителей. В этот раз темой стал юбилей Октябрьской революции.</p>\n","site_url":"https://kudago.com/spb/event/prazdnik-festival-sveta-2017/"},{"dates":[{"start":1497078000,"end":1497297600}],"title":"День России в Москве 2017","description":"<p>Всё ещё думаете, куда пойти на День России 2017? KudaGo решил многие вопросы за вас и рад представить гид по праздничным мероприятиям этого года. Слушаем молодых музыкантов, встречаем самый большой в стране самовар, знакомимся с талантами — всё это и многое другое подарит столица на один из главных праздников года.</p>\n","site_url":"https://kudago.com/msk/event/prazdnik-den-rossii-2017/"},{"dates":[{"start":1500660000,"end":1501624800}],"title":"III Международный фестиваль искусств «Вдохновение»","description":"<p>В парке «Останкино» пройдет ежегодный световой мультимедийный фестиваль. После захода солнца зрители смогут прогуляться по волшебному лесу и встретить диковинных персонажей: летающих рыб, светящихся лошадей и небесных люмильеров.</p>\n","site_url":"https://kudago.com/msk/event/vyistavka-vdohnovenie/"},{"dates":[{"start":1558767600,"end":1558854000}],"title":"День города – 2019","description":"<p>  </p><p>Петербургу — 316! В мае наш город отмечает очередной День рождения, и праздничная программа обещает быть насыщенной.</p>","site_url":"https://kudago.com/spb/event/detyam-den-goroda---2019/"},{"dates":[{"start":1555783200,"end":1555876800}],"title":"фестиваль «Чудо света»","description":"<p>Яркое шоу, новые технологии и встреча с чудом — всё это ждёт вас на третьем ежегодном фестивале «Чудо света»!</p>","site_url":"https://kudago.com/spb/event/festival-chudo-sveta/"},{"dates":[{"start":1541782800,"end":1541782800}],"title":"опера Mein Herz Brennt (Германия) на стихи и музыку Rammstein с симфоническим оркестром","description":"<p>Уже скоро петербуржцам представят уникальную оперу на стихи группы Rammstein.</p>","site_url":"https://kudago.com/spb/event/teatr-mein-herz-brennt/"},{"dates":[{"start":1532851200,"end":1532851200}],"title":"День Военно-Морского флота","description":"<p>Парад, салют, Хор Турецкого и Олег Газманов —  KudaGo расскажет, как Петербург отметит День ВМФ.</p>","site_url":"https://kudago.com/spb/event/prazdnik-den-voenno-morskogo-flota/"},{"dates":[{"start":1546203600,"end":1546376340}],"title":"Новый год — 2019","description":"<p>Что нужно сделать, чтобы 31 декабря и восемь дней праздников прошли на одном дыхании? Правильно, обзавестись новогодним настроением. Но как это сделать, если вы — взрослый и весь в делах?</p>","site_url":"https://kudago.com/spb/event/vecherinka-novyij-god---2019/"},{"dates":[{"start":1607252400,"end":1607371200}],"title":"3D-мэппинг шоу «Образ Победы в коллекциях и судьбе Эрмитажа» в онлайн-формате","description":"<p>Рисунки светом и трёхмерные проекции расскажут зрителям онлайн-показа об образе Победы в произведениях из эрмитажного собрания.</p>","site_url":"https://kudago.com/spb/event/vyistavka-obraz-pobedyi-v-kollektsiyah-i-sudbe-ermitazha/"},{"dates":[{"start":1499500800,"end":1499540400}],"title":"День семьи, любви и верности 2017","description":"<p>Большой музыкальный фестиваль в «Царицыно», экскурсии в столичных музеях, события в парках, бесплатные кинопоказы и яркий фейерверк — 8 июля в Москве отметят праздник, известный также как День Петра и Февронии.</p>\n","site_url":"https://kudago.com/msk/event/festival-den-petra-i-fevronii/"},{"dates":[{"start":1548363600,"end":1548450000},{"start":1579813200,"end":1580072400}],"title":"День студента и Татьянин день в Петербурге","description":"<p>  </p><p>25 января в Петербурге отмечают двойной праздник, посвящённый всем студентам и Татьянам. Самые интересные события дня вы найдёте в нашем гиде. </p>","site_url":"https://kudago.com/spb/event/prazdnik-den-studenta-v-peterburge/"},{"dates":[{"start":1541512800,"end":1541858400}],"title":"неделя Джоан Роулинг в Санкт-Петербурге","description":"<p>С 6 по 10 ноября петербургские библиотеки станут Хогвартсом, а их юные посетители — настоящими волшебниками. А все потому, что в Петербурге проводится неделя «мамы Гарри Поттера» Джоан Роулинг.</p>","site_url":"https://kudago.com/spb/event/vstrecha-nedelya-dzhoan-rouling-v-sankt-peterburge/"},{"dates":[{"start":1541250000,"end":1541250000},{"start":1541318400,"end":1541318400}],"title":"Ночь искусств-2018","description":"<p>4 ноября любителям искусства снова будет не до сна, ведь именно в эту ночь во многих городах нашей страны пройдёт ежегодная акция «Ночь искусств». Петербург, конечно, не останется в стороне. Необычные встречи и концерты будут организованы сразу на нескольких площадках. </p>","site_url":"https://kudago.com/spb/event/aktsiya-noch-iskusstv-2018/"},{"dates":[{"start":1528632000,"end":1528718400},{"start":1562414400,"end":1562500800}],"title":"фестиваль Tinkoff Stereoleto 2019","description":"<p>В 2019 году фестиваль Stereoleto перебирается в «Севкабель Порт». Сменив площадку, один из самых ярких летних фестивалей в России порадует гостей выступлениями грандиозных хедлайнеров и перспективных новичков отечественной и зарубежной сцены, а также экспозицией современного искусства, масштабным фудкортом, насыщенной развлекательной программой для всех возрастов и другими приятными сюрпризами.</p>\n","site_url":"https://kudago.com/spb/event/kontsert-stereoleto-2018/"},{"dates":[{"start":1556694000,"end":1556726580}],"title":"фестиваль бесплатных экскурсий «Парадные Петроградской»","description":"<p>Загляните в дома эпохи модерна на Петроградке в компании экскурсовода и узнайте тайны каждой ступеньки этих шикарных парадных.</p>","site_url":"https://kudago.com/spb/event/festival-festival-paradnyih-2019/"},{"dates":[{"start":1558173600,"end":1558173600}],"title":"весенний праздник фонтанов в Петергофе «Гений и место»","description":"<p>Фонтаны в Петергофе уже начали новый рабочий сезон, но официальное открытие и традиционный праздник фонтанов пройдёт 18 мая. Тема уже известна: «Гений и место». Догадываетесь, о ком идёт речь? </p>","site_url":"https://kudago.com/spb/event/prazdnik-prazdnik-fontanov-genij-i-mesto/"},{"dates":[{"start":1676581200,"end":1677445200},{"start":1709845200,"end":1710709200}],"title":"фестиваль «Московская Масленица — 2024»","description":"<p>Как гласит известная пословица: «Масленицу провожаем, света солнца ожидаем». И правда, для тёплой и яркой весны нужно как следует попрощаться с зимой! Москва провожает холода с масленичным квестом, ремесленными мастер-классами, спектаклями по народным сказкам и, конечно, блинами.</p>","site_url":"https://kudago.com/msk/event/festival-festival-maslenitsa-2023/"},{"dates":[{"start":1577653200,"end":1578517200},{"start":1609362000,"end":1610312400},{"start":1640898000,"end":1641762000},{"start":1672434000,"end":1673211600},{"start":1703883600,"end":1704747600}],"title":"новый год — 2024 в Петербурге","description":"<p>В этом году наслаждаться каникулами петербуржцы и гости города будут <strong>с 30 декабря по 8 января, </strong>а это значит, что у нас есть куча времени для развлечений и поддержания рождественского духа. Читайте <a href=\"https://kudago.com/spb/new-year/\">новогоднюю</a> инструкцию от команды KudaGo по воплощению праздника в жизнь и берите идеи на заметку.</p>","site_url":"https://kudago.com/spb/event/prazdnik-novyij-god---2020/"},{"dates":[{"start":1534586400,"end":1534622400}],"title":"фестиваль «Акустика Счастья»","description":"<p>Музыкально-гастрономический фестиваль с международным составом артистов впервые состоится у берегов Невы. В программе также вкусная еда, ресторан pop-up, блошиный рынок, практики йоги, настоящий планетарий и многое другое.</p>","site_url":"https://kudago.com/spb/event/kontsert-akustika-schastya/"},{"dates":[{"start":1560610800,"end":1560610800}],"title":"Торжественное открытие Театральной олимпиады","description":"<p>Театры всех стран объединятся в Санкт-Петербурге! 15 июня на площади Островского пройдёт торжественное открытие <a href=\"https://kudago.com/all/news/theatrical-olimpiad-2019/\">Театральной олимпиады</a>, которой в этом году исполнится 25 лет. Режиссёром церемонии открытия стал Николай Рощин, художником — Алексей Трегубов.</p>","site_url":"https://kudago.com/spb/event/teatr-torzhestvennoe-otkryitie-teatralnoj-olimpiadyi-2019/"}]}